.s9-tuzdybas{
	background: transparent url('../pics/s9-tuzdybas.png') 0 0 no-repeat;
	background-size: 100% 100%;
	position: absolute;
	left: 3.4%;
	top: 2.8%;
	width: 34.6%;
	height: 30.1%;
}

.s9-yuchen{
	background: transparent url('../pics/s9-yuchen.png') 0 0 no-repeat;
	background-size: 100% 100%;
	position: absolute;
	left: 2.9%;
	top: 50.3%;
	width: 35.1%;
	height: 35.2%;
}


<div class='s9-tuzdybas'></div>
<div class='s9-yuchen'></div>
